<?xml version="1.0" standalone="no"?>
<!DOCTYPE svg PUBLIC "-//W3C//DTD SVG 20010904//EN"
 "http://www.w3.org/TR/2001/REC-SVG-20010904/DTD/svg10.dtd">
<svg version="1.0" xmlns="http://www.w3.org/2000/svg"
 width="1500.000000pt" height="374.000000pt" viewBox="0 0 1500.000000 374.000000"
 preserveAspectRatio="xMidYMid meet">

<g transform="translate(0.000000,374.000000) scale(0.100000,-0.100000)"
fill="#ffffff" stroke="none">
<path d="M30 2844 l0 -896 72 67 c39 36 100 85 135 108 l63 41 0 653 0 653
1370 0 1370 0 0 135 0 135 -1505 0 -1505 0 0 -896z"/>
<path d="M1760 3114 c-128 -27 -239 -99 -300 -194 -56 -87 -73 -158 -72 -300
0 -69 5 -141 9 -160 l9 -35 142 -3 143 -3 -8 38 c-4 21 -7 77 -7 124 0 112 27
169 99 214 l48 30 609 3 608 3 0 149 0 150 -607 -1 c-483 0 -621 -3 -673 -15z"/>
<path d="M11030 2840 l0 -70 65 0 65 0 0 70 0 70 -65 0 -65 0 0 -70z"/>
<path d="M13720 2840 l0 -70 65 0 65 0 0 70 0 70 -65 0 -65 0 0 -70z"/>
<path d="M4232 2128 l3 -733 27 -97 c74 -271 235 -438 492 -513 243 -70 581
-51 781 45 230 110 362 323 395 640 5 52 10 386 10 743 l0 647 -194 0 -195 0
-4 -697 c-3 -630 -6 -705 -22 -768 -34 -132 -81 -211 -159 -265 -59 -40 -114
-59 -207 -71 -203 -25 -386 57 -467 208 -67 128 -66 104 -69 886 l-4 707 -195
0 -195 0 3 -732z"/>
<path d="M6340 2675 l0 -185 185 0 185 0 0 185 0 185 -185 0 -185 0 0 -185z"/>
<path d="M7696 2828 c-8 -18 -61 -170 -119 -338 -146 -423 -562 -1626 -581
-1677 l-15 -43 193 0 193 0 63 182 c35 101 76 220 93 266 l29 82 395 -2 395
-3 69 -190 c38 -104 80 -223 95 -262 l26 -73 205 0 c191 0 205 1 201 17 -4 16
-277 775 -613 1703 l-132 365 -242 3 -242 2 -13 -32z m398 -742 l154 -456
-305 0 c-287 0 -305 1 -298 18 13 33 244 758 265 830 12 41 23 72 26 69 2 -2
73 -209 158 -461z"/>
<path d="M9420 2573 c0 -316 9 -391 55 -470 53 -89 155 -137 295 -137 162 0
268 58 321 177 23 51 24 60 27 385 l3 332 -65 0 -66 0 0 -302 c0 -172 -4 -319
-10 -339 -27 -97 -94 -144 -205 -144 -88 0 -148 31 -185 97 l-25 43 -3 323 -3
322 -70 0 -69 0 0 -287z"/>
<path d="M14068 2718 l-3 -93 -52 -3 -53 -3 0 -50 0 -49 55 0 55 0 0 -226 c0
-188 3 -232 16 -260 24 -51 60 -65 152 -62 l77 3 3 48 3 47 -49 0 c-76 0 -77
1 -80 242 l-3 208 70 0 71 0 0 50 0 49 -67 3 -68 3 -3 93 -3 92 -59 0 -59 0
-3 -92z"/>
<path d="M10540 2627 c-19 -6 -51 -28 -72 -49 l-38 -38 0 40 0 40 -65 0 -65 0
0 -320 0 -320 64 0 65 0 3 218 c3 208 4 219 27 259 28 49 71 73 131 73 55 0
94 -22 114 -64 13 -28 16 -72 16 -260 l0 -226 66 0 66 0 -4 248 c-3 225 -5
251 -24 292 -46 101 -164 145 -284 107z"/>
<path d="M12120 2625 c-25 -8 -64 -30 -87 -50 -105 -90 -141 -298 -78 -449 21
-50 80 -113 129 -138 95 -49 251 -30 327 39 38 34 79 98 79 123 0 6 -24 10
-55 10 -52 0 -58 -2 -98 -44 -34 -35 -51 -46 -88 -51 -98 -15 -178 54 -194
168 l-7 47 225 0 c261 0 245 -7 227 105 -13 82 -47 152 -94 193 -65 57 -188
77 -286 47z m196 -115 c32 -31 50 -65 59 -113 l7 -37 -161 0 -161 0 0 27 c0
41 38 109 73 133 46 30 145 25 183 -10z"/>
<path d="M12920 2631 c-52 -16 -91 -43 -120 -83 l-30 -41 0 56 0 57 -66 0
c-56 0 -65 -2 -60 -16 3 -9 6 -153 6 -320 l0 -304 59 0 59 0 4 198 c3 188 4
199 28 240 29 51 68 78 138 93 l52 11 0 59 c0 55 -2 59 -22 58 -13 0 -34 -4
-48 -8z"/>
<path d="M13210 2625 c-89 -28 -135 -95 -128 -187 7 -95 55 -133 226 -178 106
-29 142 -57 142 -111 0 -68 -45 -95 -146 -87 -43 4 -61 11 -84 33 -16 16 -32
37 -36 47 -4 15 -16 18 -69 18 l-64 0 8 -28 c35 -122 139 -181 295 -169 149
11 226 79 226 198 0 116 -47 155 -268 219 -40 11 -82 30 -92 40 -27 27 -25 66
5 95 50 51 195 24 211 -40 6 -23 10 -25 70 -25 l64 0 -6 28 c-11 44 -31 78
-64 106 -62 52 -194 70 -290 41z"/>
<path d="M11030 2300 l0 -320 65 0 65 0 0 320 0 320 -65 0 -65 0 0 -320z"/>
<path d="M11346 2403 c42 -120 92 -264 111 -320 l35 -103 71 0 72 0 116 321
116 320 -65 -3 -66 -3 -85 -258 -85 -258 -18 63 c-10 35 -46 152 -80 261 l-61
197 -68 0 -68 0 75 -217z"/>
<path d="M13720 2300 l0 -320 65 0 65 0 0 320 0 320 -65 0 -65 0 0 -320z"/>
<path d="M14410 2612 c0 -5 52 -153 115 -329 63 -176 115 -326 115 -333 0 -30
-44 -101 -71 -115 -15 -8 -48 -15 -74 -15 l-45 0 0 -55 0 -55 68 0 c111 1 175
43 218 146 14 34 264 754 264 761 0 2 -29 3 -63 3 l-64 0 -66 -212 c-36 -117
-71 -232 -78 -255 -7 -24 -15 -43 -18 -43 -3 0 -43 115 -89 255 l-83 255 -64
0 c-36 0 -65 -4 -65 -8z"/>
<path d="M2050 2420 l0 -150 495 0 495 0 0 150 0 150 -495 0 -495 0 0 -150z"/>
<path d="M6340 1485 l0 -715 185 0 185 0 0 715 0 715 -185 0 -185 0 0 -715z"/>
<path d="M867 2075 c-259 -49 -476 -180 -638 -383 -207 -259 -277 -604 -190
-944 99 -384 403 -664 800 -733 64 -12 178 -15 493 -15 l409 0 -3 143 -3 142
-265 6 c-289 6 -319 11 -433 72 -78 41 -169 139 -197 214 -28 71 -37 188 -21
266 27 127 117 250 223 301 146 70 363 47 496 -54 l53 -40 -3 157 -3 156 -63
35 c-88 48 -186 72 -296 72 -125 0 -214 -21 -326 -76 -168 -83 -293 -234 -348
-419 -29 -96 -35 -258 -13 -345 18 -73 72 -190 116 -251 19 -27 31 -49 27 -49
-21 0 -137 85 -191 140 -138 140 -211 334 -211 560 0 131 21 222 77 340 39 81
59 107 137 185 101 100 190 154 326 196 63 20 97 24 210 24 74 0 154 -4 178
-8 l42 -9 0 155 c0 138 -2 156 -17 162 -37 15 -287 15 -366 0z"/>
<path d="M2070 990 l0 -990 160 0 160 0 0 990 0 990 -160 0 -160 0 0 -990z"/>
<path d="M2720 990 l0 -990 160 0 160 0 0 990 0 990 -160 0 -160 0 0 -990z"/>
<path d="M10266 1710 c-38 -12 -84 -56 -102 -100 -8 -19 -18 -70 -21 -112 l-6
-78 -48 0 -49 0 0 -50 0 -50 50 0 50 0 0 -275 0 -275 65 0 65 0 0 275 0 275
65 0 65 0 0 50 0 50 -65 0 -65 0 0 60 c0 64 18 113 45 124 9 3 34 6 56 6 l39
0 0 49 c0 35 -4 51 -16 55 -22 8 -93 6 -128 -4z"/>
<path d="M12830 1539 c0 -163 -1 -171 -17 -157 -42 36 -88 51 -159 51 -166 0
-272 -110 -290 -302 -14 -151 37 -280 136 -338 48 -30 62 -33 130 -33 86 0
144 22 178 64 l21 27 3 -38 3 -38 63 -3 62 -3 -2 468 -3 468 -62 3 -63 3 0
-172z m-81 -227 c19 -9 43 -28 53 -42 27 -39 41 -153 28 -236 -20 -124 -63
-169 -163 -169 -50 0 -69 5 -96 24 -116 83 -102 363 20 424 44 22 115 21 158
-1z"/>
<path d="M11055 1648 c-78 -218 -305 -864 -305 -870 0 -4 29 -8 64 -8 l63 0
45 128 45 127 174 0 174 0 45 -125 45 -125 73 -3 72 -3 -21 53 c-11 29 -84
229 -163 443 l-143 390 -82 3 c-59 2 -83 -1 -86 -10z m95 -131 c0 -7 29 -93
64 -192 36 -99 63 -181 62 -183 -2 -1 -64 -1 -138 0 l-134 3 65 197 c35 108
68 195 73 192 4 -3 8 -11 8 -17z"/>
<path d="M9599 1426 c-149 -32 -229 -149 -229 -331 0 -144 46 -239 145 -300
45 -28 54 -30 149 -30 118 0 156 14 223 83 59 60 86 135 87 242 1 112 -23 186
-80 249 -72 80 -182 112 -295 87z m168 -124 c54 -38 78 -103 78 -207 0 -78 -4
-98 -26 -140 -42 -82 -130 -116 -212 -81 -72 31 -110 104 -111 216 0 115 35
198 98 226 45 21 135 13 173 -14z"/>
<path d="M11853 1430 c-59 -12 -94 -33 -137 -80 -66 -73 -80 -119 -81 -250 0
-99 3 -122 23 -165 49 -107 123 -154 239 -155 83 0 114 11 163 57 l35 32 -6
-77 c-7 -89 -17 -118 -51 -150 -69 -64 -213 -48 -253 27 -15 30 -18 31 -80 31
-36 0 -65 -2 -65 -4 0 -1 5 -18 11 -37 20 -57 59 -100 117 -127 46 -21 69 -25
147 -24 148 0 232 50 277 161 21 53 23 72 26 404 l3 347 -60 0 -61 0 0 -37 0
-37 -32 31 c-18 18 -44 36 -58 41 -41 15 -112 21 -157 12z m175 -126 c50 -37
67 -87 66 -199 0 -84 -4 -107 -23 -143 -50 -97 -191 -109 -264 -23 -34 40 -47
89 -47 171 1 102 28 159 95 202 40 25 133 21 173 -8z"/>
<path d="M13320 1427 c-87 -19 -152 -75 -191 -162 -27 -59 -38 -224 -20 -290
19 -70 72 -147 124 -179 41 -25 61 -30 131 -34 129 -7 212 29 267 115 42 68
40 73 -33 73 -60 0 -64 -2 -80 -30 -34 -61 -154 -79 -216 -33 -35 26 -68 87
-77 141 l-7 42 226 0 c201 0 227 2 233 16 10 28 -15 161 -41 212 -30 58 -58
85 -116 111 -61 26 -134 32 -200 18z m158 -114 c34 -25 59 -67 67 -115 l7 -38
-161 0 c-155 0 -161 1 -161 20 0 27 26 89 48 114 44 49 147 59 200 19z"/>
<path d="M14107 1429 c-57 -13 -92 -34 -131 -81 l-36 -42 0 57 0 57 -60 0 -60
0 0 -325 0 -325 60 0 60 0 0 173 c1 191 9 246 47 295 29 39 93 71 141 72 l32
0 0 65 c0 36 -3 65 -7 64 -5 -1 -25 -5 -46 -10z"/>
</g>
</svg>
