{
    "11111": {
        "first_name": "Foo",
        "last_name": "New name to be ignored unless specified",
        "gender": "male",
        "ids": [
            {
                "source_system": "Manual",
                "external_id": "+4792929292",
                "id_type": "private_mobile"
            },
            {
                "source_system": "cerebrum",
                "external_id": "foo@example.com",
                "id_type": "feide_email"
            },
            {
                "source_system": "cerebrum",
                "external_id": "foo@uio.no",
                "id_type": "feide_id"
            },
            {
                "source_system": "cerebrum",
                "external_id": "11111",
                "id_type": "migration_id"
            }
        ],
        "date_of_birth": "1975-06-05",
        "role": [
            {
                "comment": "Comment here",
                "start_date": "2021-12-01",
                "role_type": "role_foo",
                "orgunit": "123456"
            }
        ]
    },
    "3333333": {
        "first_name": "Test",
        "last_name": "Surname",
        "gender": "female",
        "ids": [
            {
                "source_system": "Manual",
                "external_id": "NO22AB22333",
                "id_type": "passport_number"
            },
            {
                "source_system": "Manual",
                "external_id": "+4793939393",
                "id_type": "private_mobile"
            },
            {
                "source_system": "cerebrum",
                "external_id": "test.sum@example.com",
                "id_type": "feide_email"
            },
            {
                "source_system": "cerebrum",
                "external_id": "testsum@uio.no",
                "id_type": "feide_id"
            },
            {
                "source_system": "cerebrum",
                "external_id": "3333333",
                "id_type": "migration_id"
            }
        ],
        "date_of_birth": "1988-04-05",
        "role": [
            {
                "comment": "First comment",
                "start_date": "2021-12-01",
                "role_type": "role_bar",
                "orgunit": "123456"
            }
        ]
    }
}